…
```r
library(spdplyr)
pkmng_countries
```

```
class       : SpatialPolygonsDataFrame 
features    : 246 
extent      : -180, 180, -90, 83.57027  (xmin, xmax, ymin, ymax)
variables   : 12
# A tibble: 246 x 12
   FIPS  ISO2  ISO3     UN NAME    AREA POP2005 REGION SUBREGI     LON   LAT
   <fct> <fct> <fct> <int> <fct>  <int>   <dbl>  <int>   <int>   <dbl> <dbl>
 1 AC    AG    ATG      28 Anti…     44  8.30e4     19      29  -61.8   17.1
 2 AG    DZ    DZA      12 Alge… 238174  3.29e7      2      15    2.63  28.2
 3 AJ    AZ    AZE      31 Azer…   8260  8.35e6    142     145   47.4   40.4
 4 AL    AL    ALB       8 Alba…   2740  3.15e6    150      39   20.1   41.1
 5 AM    AM    ARM      51 Arme…   2820  3.02e6    142     145   44.6   40.5
 6 AO    AO    AGO      24 Ango… 124670  1.61e7      2      17   17.5  -12.3
 7 AQ    AS    ASM      16 Amer…     20  6.41e4      9      61 -171.   -14.3
 8 AR    AR    ARG      32 Arge… 273669  3.87e7     19       5  -65.2  -35.4
 9 AS    AU    AUS      36 Aust… 768230  2.03e7      9      53  136.   -25.0
10 BA    BH    BHR      48 Bahr…     71  7.25e5    142     145   50.6   26.0
# … with 236 more rows, and 1 more variable: pkmn_rc <int>
```
…
```r
#filter out all countries without any Pokemon sightings, and let's rename the column while we're at it:
pkmng_countries %>%
  filter(pkmn_rc > 0) %>%
  rename(Country = NAME)
```

```
class       : SpatialPolygonsDataFrame 
features    : 72 
extent      : -179.999, 179.999, -55.9175, 83.10942  (xmin, xmax, ymin, ymax)
variables   : 12
# A tibble: 72 x 12
   FIPS  ISO2  ISO3     UN Country   AREA POP2005 REGION SUBREGI    LON    LAT
   <fct> <fct> <fct> <int> <fct>    <int>   <dbl>  <int>   <int>  <dbl>  <dbl>
 1 AO    AO    AGO      24 Angola  124670  1.61e7      2      17   17.5 -12.3 
 2 AR    AR    ARG      32 Argent… 273669  3.87e7     19       5  -65.2 -35.4 
 3 AS    AU    AUS      36 Austra… 768230  2.03e7      9      53  136.  -25.0 
 4 BK    BA    BIH      70 Bosnia…   5120  3.92e6    150      39   17.8  44.2 
 5 BM    MM    MMR     104 Burma    65755  4.80e7    142      35   96.0  21.7 
 6 BR    BR    BRA      76 Brazil  845942  1.87e8     19       5  -53.1 -10.8 
 7 BX    BN    BRN      96 Brunei…    527  3.74e5    142      35  115.    4.47
 8 CA    CA    CAN     124 Canada  909351  3.23e7     19      21 -109.   59.1 
 9 CB    KH    KHM     116 Cambod…  17652  1.40e7    142      35  105.   12.7 
10 CI    CL    CHL     152 Chile    74880  1.63e7     19       5  -69.4 -23.4 
# … with 62 more rows, and 1 more variable: pkmn_rc <int>
```
…
Reading Vectors: Point data
========================================================


```r
pkmng_points
```

```
class       : SpatialPointsDataFrame 
features    : 29602 
extent      : -158.0198, 175.6162, -42.9845, 68.43698  (xmin, xmax, ymin, ymax)
variables   : 207
# A tibble: 29,602 x 207
   pokemonId latitude longitude appearedLocalTi… cellId_90m cellId_180m
       <int>    <dbl>     <dbl> <fct>                 <dbl>       <dbl>
 1        16     53.7    -0.443 2016-09-04T09:3…    5.22e18     5.22e18
 2        60     46.0     8.96  2016-09-06T07:5…    5.15e18     5.15e18
 3        19     46.2    15.3   2016-09-04T08:3…    5.14e18     5.14e18
 4        16     50.7    14.5   2016-09-04T09:2…    5.12e18     5.12e18
 5        23     44.5    11.3   2016-09-04T16:0…    5.15e18     5.15e18
 6       120     50.2    14.7   2016-09-03T15:5…    5.12e18     5.12e18
 7        46     33.6   -84.3   2016-09-07T01:0…    9.87e18     9.87e18
 8        10     46.0     8.95  2016-09-06T06:2…    5.15e18     5.15e18
 9        27     33.9  -118.    2016-09-06T05:1…    9.28e18     9.28e18
10        23     34.3  -119.    2016-09-06T14:4…    9.29e18     9.29e18
# … with 29,592 more rows, and 201 more variables: cellId_370m <dbl>,
#   cellId_730m <dbl>, cellId_1460m <dbl>, cellId_2920m <dbl>,
#   cellId_5850m <dbl>, appearedTimeOfDay <fct>, appearedHour <int>,
#   appearedMinute <int>, appearedDayOfWeek <fct>, appearedDay <int>,
#   appearedMonth <int>, appearedYear <int>, terrainType <int>,
#   closeToWater <lgl>, city <fct>, continent <fct>, weather <fct>,
#   temperature <dbl>, windSpeed <dbl>, windBearing <int>, pressure <dbl>,
#   weatherIcon <fct>, sunriseMinutesMidnight <int>, sunriseHour <int>,
#   sunriseMinute <int>, sunriseMinutesSince <int>,
…
